[
    {
        "Number": 1,
        "Complete": "false",
        "Minerals": 5000,
		"Name" : "MOSCOW",
        "MapNameLeft": "map1",
        "MapNameRight": "map2-2",
		"Time" : 64800,
        "SpawnTiles": [
            {
                "X": 12,
                "Y": 12
            },
			{
				"X" : 14,
				"Y" : 14
			
			}
        ],
        "Base": {
            "X": 32,
            "Y": 7
        },
        "BaseHealth": 40,
        "TimeBetweenSpawns": 3,
        "Units": [
            [
                "Basic"

            ]
        ],
        "DeadTiles": [

					  

		],
        "ResourceTiles": 
        [
        ]


    },
    {
        "Number": 2,
        "Complete": "false",
        "Minerals": 5000,
		"Name" : "PARIS",
        "MapNameLeft": "map2",
        "MapNameRight": "D",
		"Time" : 43200,
        "SpawnTiles": [
            {
                "X": 0,
                "Y": 0
            }
        ],
        "Base": {
            "X": 5,
            "Y": 5
        },
        "BaseHealth": 1,
        "TimeBetweenSpawns": 1,
        "Units": [
            [
                "Basic",
                "Basic",
                "Basic",
                "Basic",
                "Basic"
            ],
            [
                
                "Basic",
                "Basic",
                "Basic",
                "Basic",
                "Basic",
                "Basic",
                "Basic",
                "Basic",
                "Basic",
                "Basic"
            ],
            [
                
                "Basic",
                "Basic",
                "Basic",
                "Basic",
                "Basic",
                "Basic",
                "Basic",
                "Basic",
                "Basic",
                "Basic",
                "Basic",
                "Basic",
                "Basic",
                "Basic",
                "Basic",
                "Basic",
                "Basic",
                "Basic",
                "Basic",
                "Basic",
                "Basic",
                "Basic",
                "Basic",
                "Basic",
                "Basic",
                "Basic",
                "Basic",
                "Basic",
                "Basic",
                "Basic",
                "Basic",
                "Basic",
                "Basic",
                "Basic",
                "Basic",
                "Basic",
                "Basic",
                "Basic",
                "Basic",
                "Basic",
                "Basic",
                "Basic",
                "Basic",
                "Basic",
                "Basic",
                "Basic",
                "Basic",
                "Basic",
                "Basic",
                "Basic",
                "Basic",
                "Basic",
                "Basic",
                "Basic",
                "Basic",
                "Basic",
                "Basic",
                "Basic",
                "Basic",
                "Basic",
                "Basic",
                "Basic",
                "Basic",
                "Basic",
                "Basic"
            ]
            
        ],
        "DeadTiles": [

		],
        "ResourceTiles": 
        [
            { "Type": "Gold", "X": 14, "Y": 14, "Amount" : 500 },
            { "Type": "Gold", "X" : 14, "Y" : 15, "Amount" : 500}
        ]

    }
    

]
